%YAML 1.1
%TAG !u! tag:unity3d.com,2011:
--- !u!114 &-8106378063216314742
MonoBehaviour:
  m_ObjectHideFlags: 3
  m_CorrespondingSourceObject: {fileID: 0}
  m_PrefabInstance: {fileID: 0}
  m_PrefabAsset: {fileID: 0}
  m_GameObject: {fileID: 0}
  m_Enabled: 1
  m_EditorHideFlags: 0
  m_Script: {fileID: 11500000, guid: 48a79b01ea5641d4aa6daa2e23605641, type: 3}
  m_Name: Bloom
  m_EditorClassIdentifier: 
  active: 1
  enabled:
    overrideState: 1
    value: 1
  intensity:
    overrideState: 1
    value: 7
  threshold:
    overrideState: 0
    value: 1
  softKnee:
    overrideState: 1
    value: 1
  clamp:
    overrideState: 0
    value: 65472
  diffusion:
    overrideState: 0
    value: 7.73
  anamorphicRatio:
    overrideState: 0
    value: 1
  color:
    overrideState: 1
    value: {r: 1, g: 1, b: 1, a: 1}
  fastMode:
    overrideState: 0
    value: 1
  dirtTexture:
    overrideState: 0
    value: {fileID: 0}
    defaultState: 1
  dirtIntensity:
    overrideState: 0
    value: 0
--- !u!114 &11400000
MonoBehaviour:
  m_ObjectHideFlags: 0
  m_CorrespondingSourceObject: {fileID: 0}
  m_PrefabInstance: {fileID: 0}
  m_PrefabAsset: {fileID: 0}
  m_GameObject: {fileID: 0}
  m_Enabled: 1
  m_EditorHideFlags: 0
  m_Script: {fileID: 11500000, guid: 8e6292b2c06870d4495f009f912b9600, type: 3}
  m_Name: PostProcessMainCamera Profile
  m_EditorClassIdentifier: 
  settings:
  - {fileID: -8106378063216314742}
  - {fileID: 6000835822858464540}
  - {fileID: 9042035389777977936}
--- !u!114 &6000835822858464540
MonoBehaviour:
  m_ObjectHideFlags: 3
  m_CorrespondingSourceObject: {fileID: 0}
  m_PrefabInstance: {fileID: 0}
  m_PrefabAsset: {fileID: 0}
  m_GameObject: {fileID: 0}
  m_Enabled: 1
  m_EditorHideFlags: 0
  m_Script: {fileID: 11500000, guid: 556797029e73b2347956b6579e77e05b, type: 3}
  m_Name: DepthOfField
  m_EditorClassIdentifier: 
  active: 1
  enabled:
    overrideState: 1
    value: 1
  focusDistance:
    overrideState: 1
    value: 0.3
  aperture:
    overrideState: 1
    value: 26
  focalLength:
    overrideState: 1
    value: 27
  kernelSize:
    overrideState: 0
    value: 1
--- !u!114 &9042035389777977936
MonoBehaviour:
  m_ObjectHideFlags: 3
  m_CorrespondingSourceObject: {fileID: 0}
  m_PrefabInstance: {fileID: 0}
  m_PrefabAsset: {fileID: 0}
  m_GameObject: {fileID: 0}
  m_Enabled: 1
  m_EditorHideFlags: 0
  m_Script: {fileID: 11500000, guid: 40b924e2dad56384a8df2a1e111bb675, type: 3}
  m_Name: Vignette
  m_EditorClassIdentifier: 
  active: 1
  enabled:
    overrideState: 1
    value: 1
  mode:
    overrideState: 0
    value: 0
  color:
    overrideState: 0
    value: {r: 0, g: 0, b: 0, a: 1}
  center:
    overrideState: 0
    value: {x: 0.5, y: 0.5}
  intensity:
    overrideState: 1
    value: 0.2
  smoothness:
    overrideState: 1
    value: 0.6
  roundness:
    overrideState: 0
    value: 1
  rounded:
    overrideState: 0
    value: 0
  mask:
    overrideState: 0
    value: {fileID: 0}
    defaultState: 1
  opacity:
    overrideState: 0
    value: 1
