%YAML 1.1
%TAG !u! tag:unity3d.com,2011:
--- !u!1001 &4059885429909163765
PrefabInstance:
  m_ObjectHideFlags: 0
  serializedVersion: 2
  m_Modification:
    m_TransformParent: {fileID: 0}
    m_Modifications:
    - target: {fileID: 6766565838223032822, guid: 441aef98c37c4f341af275ef0cba7259,
        type: 3}
      propertyPath: m_Name
      value: L Shape Corridor
      objectReference: {fileID: 0}
    - target: {fileID: 6766565838223032818, guid: 441aef98c37c4f341af275ef0cba7259,
        type: 3}
      propertyPath: m_LocalPosition.x
      value: 0
      objectReference: {fileID: 0}
    - target: {fileID: 6766565838223032818, guid: 441aef98c37c4f341af275ef0cba7259,
        type: 3}
      propertyPath: m_LocalPosition.y
      value: 0
      objectReference: {fileID: 0}
    - target: {fileID: 6766565838223032818, guid: 441aef98c37c4f341af275ef0cba7259,
        type: 3}
      propertyPath: m_LocalPosition.z
      value: -1.5
      objectReference: {fileID: 0}
    - target: {fileID: 6766565838223032818, guid: 441aef98c37c4f341af275ef0cba7259,
        type: 3}
      propertyPath: m_LocalRotation.x
      value: -0.000000030908623
      objectReference: {fileID: 0}
    - target: {fileID: 6766565838223032818, guid: 441aef98c37c4f341af275ef0cba7259,
        type: 3}
      propertyPath: m_LocalRotation.y
      value: -0.7071068
      objectReference: {fileID: 0}
    - target: {fileID: 6766565838223032818, guid: 441aef98c37c4f341af275ef0cba7259,
        type: 3}
      propertyPath: m_LocalRotation.z
      value: 0.7071068
      objectReference: {fileID: 0}
    - target: {fileID: 6766565838223032818, guid: 441aef98c37c4f341af275ef0cba7259,
        type: 3}
      propertyPath: m_LocalRotation.w
      value: -0.000000030908623
      objectReference: {fileID: 0}
    - target: {fileID: 6766565838223032818, guid: 441aef98c37c4f341af275ef0cba7259,
        type: 3}
      propertyPath: m_AnchoredPosition.x
      value: 0
      objectReference: {fileID: 0}
    - target: {fileID: 6766565838223032818, guid: 441aef98c37c4f341af275ef0cba7259,
        type: 3}
      propertyPath: m_AnchoredPosition.y
      value: 0
      objectReference: {fileID: 0}
    - target: {fileID: 6766565838223032818, guid: 441aef98c37c4f341af275ef0cba7259,
        type: 3}
      propertyPath: m_SizeDelta.x
      value: 0.15
      objectReference: {fileID: 0}
    - target: {fileID: 6766565838223032818, guid: 441aef98c37c4f341af275ef0cba7259,
        type: 3}
      propertyPath: m_SizeDelta.y
      value: 0.15
      objectReference: {fileID: 0}
    - target: {fileID: 6766565838223032818, guid: 441aef98c37c4f341af275ef0cba7259,
        type: 3}
      propertyPath: m_AnchorMin.x
      value: 0.5
      objectReference: {fileID: 0}
    - target: {fileID: 6766565838223032818, guid: 441aef98c37c4f341af275ef0cba7259,
        type: 3}
      propertyPath: m_AnchorMin.y
      value: 0.5
      objectReference: {fileID: 0}
    - target: {fileID: 6766565838223032818, guid: 441aef98c37c4f341af275ef0cba7259,
        type: 3}
      propertyPath: m_AnchorMax.x
      value: 0.5
      objectReference: {fileID: 0}
    - target: {fileID: 6766565838223032818, guid: 441aef98c37c4f341af275ef0cba7259,
        type: 3}
      propertyPath: m_AnchorMax.y
      value: 0.5
      objectReference: {fileID: 0}
    - target: {fileID: 6766565838223032818, guid: 441aef98c37c4f341af275ef0cba7259,
        type: 3}
      propertyPath: m_Pivot.x
      value: 0.5
      objectReference: {fileID: 0}
    - target: {fileID: 6766565838223032818, guid: 441aef98c37c4f341af275ef0cba7259,
        type: 3}
      propertyPath: m_Pivot.y
      value: 0.5
      objectReference: {fileID: 0}
    - target: {fileID: 6766565838223032813, guid: 441aef98c37c4f341af275ef0cba7259,
        type: 3}
      propertyPath: _roomPrefab
      value: 
      objectReference: {fileID: 111533953203915061, guid: 6c00ba332f19d6349a0511f27adf2fad,
        type: 3}
    - target: {fileID: 5486575255507660284, guid: 441aef98c37c4f341af275ef0cba7259,
        type: 3}
      propertyPath: m_Sprite
      value: 
      objectReference: {fileID: 21300000, guid: b7304f3cde1476747a0f5547ca04f13d,
        type: 3}
    m_RemovedComponents: []
  m_SourcePrefab: {fileID: 100100000, guid: 441aef98c37c4f341af275ef0cba7259, type: 3}
