%YAML 1.1
%TAG !u! tag:unity3d.com,2011:
--- !u!1 &3353756487094380910
GameObject:
  m_ObjectHideFlags: 0
  m_CorrespondingSourceObject: {fileID: 0}
  m_PrefabInstance: {fileID: 0}
  m_PrefabAsset: {fileID: 0}
  serializedVersion: 6
  m_Component:
  - component: {fileID: 3353756487094380911}
  - component: {fileID: 3353756487094380908}
  m_Layer: 5
  m_Name: HouseController
  m_TagString: HouseControl
  m_Icon: {fileID: 0}
  m_NavMeshLayer: 0
  m_StaticEditorFlags: 0
  m_IsActive: 1
--- !u!224 &3353756487094380911
RectTransform:
  m_ObjectHideFlags: 0
  m_CorrespondingSourceObject: {fileID: 0}
  m_PrefabInstance: {fileID: 0}
  m_PrefabAsset: {fileID: 0}
  m_GameObject: {fileID: 3353756487094380910}
  m_LocalRotation: {x: 0, y: 0, z: 0, w: 1}
  m_LocalPosition: {x: 0, y: 0, z: 0}
  m_LocalScale: {x: 1, y: 1, z: 1}
  m_Children: []
  m_Father: {fileID: 0}
  m_RootOrder: 0
  m_LocalEulerAnglesHint: {x: 0, y: 0, z: 0}
  m_AnchorMin: {x: 0.5, y: 0.5}
  m_AnchorMax: {x: 0.5, y: 0.5}
  m_AnchoredPosition: {x: 0, y: 0}
  m_SizeDelta: {x: 100, y: 100}
  m_Pivot: {x: 0.5, y: 0.5}
--- !u!114 &3353756487094380908
MonoBehaviour:
  m_ObjectHideFlags: 0
  m_CorrespondingSourceObject: {fileID: 0}
  m_PrefabInstance: {fileID: 0}
  m_PrefabAsset: {fileID: 0}
  m_GameObject: {fileID: 3353756487094380910}
  m_Enabled: 1
  m_EditorHideFlags: 0
  m_Script: {fileID: 11500000, guid: be90ffb655f3af84b97dbdb298bb6432, type: 3}
  m_Name: 
  m_EditorClassIdentifier: 
  corridorHoriz: {fileID: 2129969660168060294, guid: 05bf32a523505b34b800f1ba9b477bd9,
    type: 3}
  corridorVert: {fileID: 6720162862303804684, guid: 3f6c661bfd11f334aaa2d2f631aba99e,
    type: 3}
  lShapeBottomLeft: {fileID: 2129969660168060294, guid: e5d0cd06a4d75874da14976c9f7cd7ba,
    type: 3}
  lShapeBottomRight: {fileID: 2129969660168060294, guid: 6f2d207300e90d9479d30dff4f42f39a,
    type: 3}
  lShapeLeftTop: {fileID: 2129969660168060294, guid: fbb32100f463dc249821eda4e28625ce,
    type: 3}
  lShapeTopRight: {fileID: 2129969660168060294, guid: 374ff90badcda194cad9ccdf646b08cc,
    type: 3}
