%YAML 1.1
%TAG !u! tag:unity3d.com,2011:
--- !u!1001 &5201989144621178649
PrefabInstance:
  m_ObjectHideFlags: 0
  serializedVersion: 2
  m_Modification:
    m_TransformParent: {fileID: 0}
    m_Modifications:
    - target: {fileID: 111533953203915061, guid: 86b3c27a4e2d51f4bb28b40d55c66c28,
        type: 3}
      propertyPath: m_Name
      value: L Shape Corridor
      objectReference: {fileID: 0}
    - target: {fileID: 111533953203915060, guid: 86b3c27a4e2d51f4bb28b40d55c66c28,
        type: 3}
      propertyPath: m_LocalPosition.x
      value: 0
      objectReference: {fileID: 0}
    - target: {fileID: 111533953203915060, guid: 86b3c27a4e2d51f4bb28b40d55c66c28,
        type: 3}
      propertyPath: m_LocalPosition.y
      value: 0
      objectReference: {fileID: 0}
    - target: {fileID: 111533953203915060, guid: 86b3c27a4e2d51f4bb28b40d55c66c28,
        type: 3}
      propertyPath: m_LocalPosition.z
      value: 0
      objectReference: {fileID: 0}
    - target: {fileID: 111533953203915060, guid: 86b3c27a4e2d51f4bb28b40d55c66c28,
        type: 3}
      propertyPath: m_LocalRotation.x
      value: 0
      objectReference: {fileID: 0}
    - target: {fileID: 111533953203915060, guid: 86b3c27a4e2d51f4bb28b40d55c66c28,
        type: 3}
      propertyPath: m_LocalRotation.y
      value: 1
      objectReference: {fileID: 0}
    - target: {fileID: 111533953203915060, guid: 86b3c27a4e2d51f4bb28b40d55c66c28,
        type: 3}
      propertyPath: m_LocalRotation.z
      value: 0
      objectReference: {fileID: 0}
    - target: {fileID: 111533953203915060, guid: 86b3c27a4e2d51f4bb28b40d55c66c28,
        type: 3}
      propertyPath: m_LocalRotation.w
      value: 0
      objectReference: {fileID: 0}
    - target: {fileID: 111533953203915060, guid: 86b3c27a4e2d51f4bb28b40d55c66c28,
        type: 3}
      propertyPath: m_RootOrder
      value: 0
      objectReference: {fileID: 0}
    - target: {fileID: 111533953203915060, guid: 86b3c27a4e2d51f4bb28b40d55c66c28,
        type: 3}
      propertyPath: m_LocalEulerAnglesHint.x
      value: 0
      objectReference: {fileID: 0}
    - target: {fileID: 111533953203915060, guid: 86b3c27a4e2d51f4bb28b40d55c66c28,
        type: 3}
      propertyPath: m_LocalEulerAnglesHint.y
      value: 180
      objectReference: {fileID: 0}
    - target: {fileID: 111533953203915060, guid: 86b3c27a4e2d51f4bb28b40d55c66c28,
        type: 3}
      propertyPath: m_LocalEulerAnglesHint.z
      value: 0
      objectReference: {fileID: 0}
    - target: {fileID: 111533954753931991, guid: 86b3c27a4e2d51f4bb28b40d55c66c28,
        type: 3}
      propertyPath: m_LocalPosition.z
      value: -2.402
      objectReference: {fileID: 0}
    - target: {fileID: 111533954338254326, guid: 86b3c27a4e2d51f4bb28b40d55c66c28,
        type: 3}
      propertyPath: m_LocalPosition.z
      value: 0
      objectReference: {fileID: 0}
    - target: {fileID: 111533954169213738, guid: 86b3c27a4e2d51f4bb28b40d55c66c28,
        type: 3}
      propertyPath: m_LocalPosition.z
      value: 0
      objectReference: {fileID: 0}
    - target: {fileID: 111533953367787312, guid: 86b3c27a4e2d51f4bb28b40d55c66c28,
        type: 3}
      propertyPath: m_LocalPosition.z
      value: 0
      objectReference: {fileID: 0}
    - target: {fileID: 111533954198314158, guid: 86b3c27a4e2d51f4bb28b40d55c66c28,
        type: 3}
      propertyPath: m_LocalPosition.x
      value: 0.112
      objectReference: {fileID: 0}
    - target: {fileID: 111533954198314158, guid: 86b3c27a4e2d51f4bb28b40d55c66c28,
        type: 3}
      propertyPath: m_LocalScale.x
      value: 0.80706286
      objectReference: {fileID: 0}
    m_RemovedComponents: []
  m_SourcePrefab: {fileID: 100100000, guid: 86b3c27a4e2d51f4bb28b40d55c66c28, type: 3}
