%YAML 1.1
%TAG !u! tag:unity3d.com,2011:
--- !u!1001 &5549942102281617267
PrefabInstance:
  m_ObjectHideFlags: 0
  serializedVersion: 2
  m_Modification:
    m_TransformParent: {fileID: 0}
    m_Modifications:
    - target: {fileID: 7942881150436826832, guid: 85447700acaf94c4f8b3e8481aea3cd4,
        type: 3}
      propertyPath: m_Name
      value: OldBrain
      objectReference: {fileID: 0}
    - target: {fileID: 7942881150436826832, guid: 85447700acaf94c4f8b3e8481aea3cd4,
        type: 3}
      propertyPath: m_IsActive
      value: 0
      objectReference: {fileID: 0}
    - target: {fileID: 7942881150436826835, guid: 85447700acaf94c4f8b3e8481aea3cd4,
        type: 3}
      propertyPath: m_LocalPosition.x
      value: 5.5
      objectReference: {fileID: 0}
    - target: {fileID: 7942881150436826835, guid: 85447700acaf94c4f8b3e8481aea3cd4,
        type: 3}
      propertyPath: m_LocalPosition.y
      value: 0.75
      objectReference: {fileID: 0}
    - target: {fileID: 7942881150436826835, guid: 85447700acaf94c4f8b3e8481aea3cd4,
        type: 3}
      propertyPath: m_LocalPosition.z
      value: -2.54
      objectReference: {fileID: 0}
    - target: {fileID: 7942881150436826835, guid: 85447700acaf94c4f8b3e8481aea3cd4,
        type: 3}
      propertyPath: m_LocalRotation.x
      value: 0
      objectReference: {fileID: 0}
    - target: {fileID: 7942881150436826835, guid: 85447700acaf94c4f8b3e8481aea3cd4,
        type: 3}
      propertyPath: m_LocalRotation.y
      value: -0.7071068
      objectReference: {fileID: 0}
    - target: {fileID: 7942881150436826835, guid: 85447700acaf94c4f8b3e8481aea3cd4,
        type: 3}
      propertyPath: m_LocalRotation.z
      value: 0
      objectReference: {fileID: 0}
    - target: {fileID: 7942881150436826835, guid: 85447700acaf94c4f8b3e8481aea3cd4,
        type: 3}
      propertyPath: m_LocalRotation.w
      value: 0.7071068
      objectReference: {fileID: 0}
    - target: {fileID: 7942881150436826835, guid: 85447700acaf94c4f8b3e8481aea3cd4,
        type: 3}
      propertyPath: m_RootOrder
      value: 0
      objectReference: {fileID: 0}
    - target: {fileID: 7942881150436826835, guid: 85447700acaf94c4f8b3e8481aea3cd4,
        type: 3}
      propertyPath: m_LocalEulerAnglesHint.x
      value: 0
      objectReference: {fileID: 0}
    - target: {fileID: 7942881150436826835, guid: 85447700acaf94c4f8b3e8481aea3cd4,
        type: 3}
      propertyPath: m_LocalEulerAnglesHint.y
      value: 0
      objectReference: {fileID: 0}
    - target: {fileID: 7942881150436826835, guid: 85447700acaf94c4f8b3e8481aea3cd4,
        type: 3}
      propertyPath: m_LocalEulerAnglesHint.z
      value: 0
      objectReference: {fileID: 0}
    - target: {fileID: 6995882882432833473, guid: 85447700acaf94c4f8b3e8481aea3cd4,
        type: 3}
      propertyPath: isGlobal
      value: 1
      objectReference: {fileID: 0}
    - target: {fileID: 6995882882432833473, guid: 85447700acaf94c4f8b3e8481aea3cd4,
        type: 3}
      propertyPath: weight
      value: 1
      objectReference: {fileID: 0}
    - target: {fileID: 7942881150436826829, guid: 85447700acaf94c4f8b3e8481aea3cd4,
        type: 3}
      propertyPath: isGlobal
      value: 1
      objectReference: {fileID: 0}
    - target: {fileID: 7942881150436826829, guid: 85447700acaf94c4f8b3e8481aea3cd4,
        type: 3}
      propertyPath: m_Enabled
      value: 1
      objectReference: {fileID: 0}
    - target: {fileID: 7942881150436826830, guid: 85447700acaf94c4f8b3e8481aea3cd4,
        type: 3}
      propertyPath: m_ShowCustomSorter
      value: 0
      objectReference: {fileID: 0}
    - target: {fileID: 7942881150436826830, guid: 85447700acaf94c4f8b3e8481aea3cd4,
        type: 3}
      propertyPath: m_ShowToolkit
      value: 0
      objectReference: {fileID: 0}
    - target: {fileID: 7942881150436826834, guid: 85447700acaf94c4f8b3e8481aea3cd4,
        type: 3}
      propertyPath: field of view
      value: 60
      objectReference: {fileID: 0}
    m_RemovedComponents: []
  m_SourcePrefab: {fileID: 100100000, guid: 85447700acaf94c4f8b3e8481aea3cd4, type: 3}
