%YAML 1.1
%TAG !u! tag:unity3d.com,2011:
--- !u!221 &22100000
AnimatorOverrideController:
  m_ObjectHideFlags: 0
  m_CorrespondingSourceObject: {fileID: 0}
  m_PrefabInstance: {fileID: 0}
  m_PrefabAsset: {fileID: 0}
  m_Name: Forward Running
  m_Controller: {fileID: 9100000, guid: 63ccc3fd55a5183409ec47a2cdd4523c, type: 2}
  m_Clips:
  - m_OriginalClip: {fileID: 7400000, guid: cdad1bac4b38832448fe0c42c2990b46, type: 2}
    m_OverrideClip: {fileID: 7400000, guid: 0a92c003f95e51640a63fccab1515432, type: 2}
